[
  {
    "id": "andrea_kreissova",
    "title": "Andrea",
    "imageFileName": "receptionist_andrea_kreissova.jpg"
  },
  {
    "id": "denisa_pavlickova",
    "title": "Denisa",
    "imageFileName": "receptionist_denisa_pavlickova.jpg"
  },
  {
    "id": "iva_kmoskova",
    "title": "Iva",
    "imageFileName": "receptionist_iva_kmoskova.jpg"
  },
  {
    "id": "daniela_bifarale",
    "title": "Daniela",
    "imageFileName": "receptionist_daniela_bifarale.jpg"
  },
  {
    "id": "alexandra_mikryukova",
    "title": "Saša",
    "imageFileName": "receptionist_alexandra_mikryukova.jpg"
  }
]
